pipeline/mipsForwHazaBeq4/test.vcd
$date
	Thu Nov 21 08:41:15 2019
$end
$version
	Icarus Verilog
$end
$timescale
	1s
$end
$scope module top $end
$var wire 1 ! clk $end
$scope module CLK $end
$var reg 1 ! out $end
$upscope $end
$scope module CPU $end
$var wire 1 ! clk $end
$var wire 1 " zero_s4 $end
$var wire 1 # zero_s3 $end
$var wire 5 $ wrreg_s5 [4:0] $end
$var wire 5 % wrreg_s4 [4:0] $end
$var wire 5 & wrreg [4:0] $end
$var wire 32 ' wrdata_s5 [31:0] $end
$var wire 5 ( shamt [4:0] $end
$var wire 32 ) seimm_sl2 [31:0] $end
$var wire 32 * seimm_s3 [31:0] $end
$var wire 32 + seimm [31:0] $end
$var wire 5 , rt_s3 [4:0] $end
$var wire 5 - rt [4:0] $end
$var wire 5 . rs_s3 [4:0] $end
$var wire 5 / rs [4:0] $end
$var wire 1 0 regwrite_s5 $end
$var wire 1 1 regwrite_s4 $end
$var wire 1 2 regwrite_s3 $end
$var wire 1 3 regwrite $end
$var wire 1 4 regdst_s3 $end
$var wire 1 5 regdst $end
$var wire 32 6 rdata_s5 [31:0] $end
$var wire 32 7 rdata [31:0] $end
$var wire 5 8 rd_s3 [4:0] $end
$var wire 5 9 rd [4:0] $end
$var wire 32 : pc4_s3 [31:0] $end
$var wire 32 ; pc4_s2 [31:0] $end
$var wire 32 < pc4 [31:0] $end
$var wire 6 = opcode [5:0] $end
$var wire 1 > memwrite_s4 $end
$var wire 1 ? memwrite_s3 $end
$var wire 1 @ memwrite $end
$var wire 1 A memtoreg_s5 $end
$var wire 1 B memtoreg_s4 $end
$var wire 1 C memtoreg_s3 $end
$var wire 1 D memtoreg $end
$var wire 1 E memread_s4 $end
$var wire 1 F memread_s3 $end
$var wire 1 G memread $end
$var wire 1 H jump_s4 $end
$var wire 1 I jump_s3 $end
$var wire 1 J jump_s2 $end
$var wire 32 K jaddr_s4 [31:0] $end
$var wire 32 L jaddr_s3 [31:0] $end
$var wire 32 M jaddr_s2 [31:0] $end
$var wire 32 N inst_s2 [31:0] $end
$var wire 32 O inst [31:0] $end
$var wire 16 P imm [15:0] $end
$var wire 6 Q funct [5:0] $end
$var wire 32 R data2_s4 [31:0] $end
$var wire 32 S data2_s3 [31:0] $end
$var wire 32 T data2 [31:0] $end
$var wire 32 U data1_s3 [31:0] $end
$var wire 32 V data1 [31:0] $end
$var wire 1 W branch_ne_s4 $end
$var wire 1 X branch_ne_s3 $end
$var wire 1 Y branch_ne_s2 $end
$var wire 1 Z branch_eq_s4 $end
$var wire 1 [ branch_eq_s3 $end
$var wire 1 \ branch_eq_s2 $end
$var wire 32 ] baddr_s4 [31:0] $end
$var wire 32 ^ baddr_s3 [31:0] $end
$var wire 32 _ baddr_s2 [31:0] $end
$var wire 1 ` alusrc_s3 $end
$var wire 32 a alusrc_data2 [31:0] $end
$var wire 1 b alusrc $end
$var wire 32 c alurslt_s5 [31:0] $end
$var wire 32 d alurslt_s4 [31:0] $end
$var wire 32 e alurslt [31:0] $end
$var wire 2 f aluop_s3 [1:0] $end
$var wire 2 g aluop [1:0] $end
$var wire 4 h aluctl [3:0] $end
$var reg 6 i clock_counter [5:0] $end
$var reg 1 j flush_s1 $end
$var reg 1 k flush_s2 $end
$var reg 1 l flush_s3 $end
$var reg 2 m forward_a [1:0] $end
$var reg 2 n forward_b [1:0] $end
$var reg 32 o fw_data1_s3 [31:0] $end
$var reg 32 p fw_data2_s3 [31:0] $end
$var reg 32 q pc [31:0] $end
$var reg 1 r pcsrc $end
$var reg 1 s stall_s1_s2 $end
$scope module alu1 $end
$var wire 32 t a [31:0] $end
$var wire 32 u b [31:0] $end
$var wire 1 # zero $end
$var wire 32 v sub_ab [31:0] $end
$var wire 1 w slt $end
$var wire 1 x oflow_sub $end
$var wire 1 y oflow_add $end
$var wire 1 z oflow $end
$var wire 4 { ctl [3:0] $end
$var wire 32 | add_ab [31:0] $end
$var reg 32 } out [31:0] $end
$upscope $end
$scope module alu_ctl1 $end
$var wire 2 ~ aluop [1:0] $end
$var wire 6 !" funct [5:0] $end
$var reg 4 "" _funct [3:0] $end
$var reg 4 #" aluctl [3:0] $end
$upscope $end
$scope module baddr_s2_s3 $end
$var wire 1 k clear $end
$var wire 1 ! clk $end
$var wire 1 $" hold $end
$var wire 32 %" in [31:0] $end
$var reg 32 &" out [31:0] $end
$upscope $end
$scope module baddr_s3_s4 $end
$var wire 1 l clear $end
$var wire 1 ! clk $end
$var wire 1 '" hold $end
$var wire 32 (" in [31:0] $end
$var reg 32 )" out [31:0] $end
$upscope $end
$scope module branch_s2_s3 $end
$var wire 1 k clear $end
$var wire 1 ! clk $end
$var wire 1 *" hold $end
$var wire 2 +" in [1:0] $end
$var reg 2 ," out [1:0] $end
$upscope $end
$scope module branch_s3_s4 $end
$var wire 1 l clear $end
$var wire 1 ! clk $end
$var wire 1 -" hold $end
$var wire 2 ." in [1:0] $end
$var reg 2 /" out [1:0] $end
$upscope $end
$scope module ctl1 $end
$var wire 6 0" opcode [5:0] $end
$var reg 2 1" aluop [1:0] $end
$var reg 1 b alusrc $end
$var reg 1 \ branch_eq $end
$var reg 1 Y branch_ne $end
$var reg 1 J jump $end
$var reg 1 G memread $end
$var reg 1 D memtoreg $end
$var reg 1 @ memwrite $end
$var reg 1 5 regdst $end
$var reg 1 3 regwrite $end
$upscope $end
$scope module dm1 $end
$var wire 7 2" addr [6:0] $end
$var wire 1 ! clk $end
$var wire 1 E rd $end
$var wire 1 > wr $end
$var wire 32 3" wdata [31:0] $end
$var wire 32 4" rdata [31:0] $end
$upscope $end
$scope module im1 $end
$var wire 32 5" addr [31:0] $end
$var wire 1 ! clk $end
$var wire 32 6" data [31:0] $end
$upscope $end
$scope module reg_alurslt $end
$var wire 1 l clear $end
$var wire 1 ! clk $end
$var wire 1 7" hold $end
$var wire 32 8" in [31:0] $end
$var reg 32 9" out [31:0] $end
$upscope $end
$scope module reg_alurslt_s4 $end
$var wire 1 :" clear $end
$var wire 1 ! clk $end
$var wire 1 ;" hold $end
$var wire 32 <" in [31:0] $end
$var reg 32 =" out [31:0] $end
$upscope $end
$scope module reg_data2_s3 $end
$var wire 1 l clear $end
$var wire 1 ! clk $end
$var wire 1 >" hold $end
$var wire 32 ?" in [31:0] $end
$var reg 32 @" out [31:0] $end
$upscope $end
$scope module reg_jaddr_s3 $end
$var wire 1 k clear $end
$var wire 1 ! clk $end
$var wire 1 A" hold $end
$var wire 32 B" in [31:0] $end
$var reg 32 C" out [31:0] $end
$upscope $end
$scope module reg_jaddr_s4 $end
$var wire 1 l clear $end
$var wire 1 ! clk $end
$var wire 1 D" hold $end
$var wire 32 E" in [31:0] $end
$var reg 32 F" out [31:0] $end
$upscope $end
$scope module reg_jump_s3 $end
$var wire 1 k clear $end
$var wire 1 ! clk $end
$var wire 1 G" hold $end
$var wire 1 J in $end
$var reg 1 I out $end
$upscope $end
$scope module reg_jump_s4 $end
$var wire 1 l clear $end
$var wire 1 ! clk $end
$var wire 1 H" hold $end
$var wire 1 I in $end
$var reg 1 H out $end
$upscope $end
$scope module reg_pc4_s2 $end
$var wire 1 I" clear $end
$var wire 1 ! clk $end
$var wire 1 s hold $end
$var wire 32 J" in [31:0] $end
$var reg 32 K" out [31:0] $end
$upscope $end
$scope module reg_rdata_s4 $end
$var wire 1 L" clear $end
$var wire 1 ! clk $end
$var wire 1 M" hold $end
$var wire 32 N" in [31:0] $end
$var reg 32 O" out [31:0] $end
$upscope $end
$scope module reg_regwrite_s4 $end
$var wire 1 P" clear $end
$var wire 1 ! clk $end
$var wire 1 Q" hold $end
$var wire 2 R" in [1:0] $end
$var reg 2 S" out [1:0] $end
$upscope $end
$scope module reg_s2_control $end
$var wire 1 s clear $end
$var wire 1 ! clk $end
$var wire 1 T" hold $end
$var wire 8 U" in [7:0] $end
$var reg 8 V" out [7:0] $end
$upscope $end
$scope module reg_s2_mem $end
$var wire 1 k clear $end
$var wire 1 ! clk $end
$var wire 1 s hold $end
$var wire 64 W" in [63:0] $end
$var reg 64 X" out [63:0] $end
$upscope $end
$scope module reg_s2_rt_rd $end
$var wire 1 k clear $end
$var wire 1 ! clk $end
$var wire 1 s hold $end
$var wire 10 Y" in [9:0] $end
$var reg 10 Z" out [9:0] $end
$upscope $end
$scope module reg_s2_seimm $end
$var wire 1 k clear $end
$var wire 1 ! clk $end
$var wire 1 s hold $end
$var wire 32 [" in [31:0] $end
$var reg 32 \" out [31:0] $end
$upscope $end
$scope module reg_s3 $end
$var wire 1 k clear $end
$var wire 1 ! clk $end
$var wire 1 ]" hold $end
$var wire 4 ^" in [3:0] $end
$var reg 4 _" out [3:0] $end
$upscope $end
$scope module reg_wrreg $end
$var wire 1 l clear $end
$var wire 1 ! clk $end
$var wire 1 `" hold $end
$var wire 5 a" in [4:0] $end
$var reg 5 b" out [4:0] $end
$upscope $end
$scope module reg_wrreg_s4 $end
$var wire 1 c" clear $end
$var wire 1 ! clk $end
$var wire 1 d" hold $end
$var wire 5 e" in [4:0] $end
$var reg 5 f" out [4:0] $end
$upscope $end
$scope module reg_zero_s3_s4 $end
$var wire 1 g" clear $end
$var wire 1 ! clk $end
$var wire 1 h" hold $end
$var wire 1 # in $end
$var reg 1 " out $end
$upscope $end
$scope module regm1 $end
$var wire 1 ! clk $end
$var wire 32 i" data1 [31:0] $end
$var wire 32 j" data2 [31:0] $end
$var wire 5 k" read1 [4:0] $end
$var wire 5 l" read2 [4:0] $end
$var wire 1 0 regwrite $end
$var wire 32 m" wrdata [31:0] $end
$var wire 5 n" wrreg [4:0] $end
$var reg 32 o" _data1 [31:0] $end
$var reg 32 p" _data2 [31:0] $end
$upscope $end
$scope module regr_im_s2 $end
$var wire 1 j clear $end
$var wire 1 ! clk $end
$var wire 1 s hold $end
$var wire 32 q" in [31:0] $end
$var reg 32 r" out [31:0] $end
$upscope $end
$scope module regr_pc4_s2 $end
$var wire 1 j clear $end
$var wire 1 ! clk $end
$var wire 1 s hold $end
$var wire 32 s" in [31:0] $end
$var reg 32 t" out [31:0] $end
$upscope $end
$scope module regr_s2_rs $end
$var wire 1 u" clear $end
$var wire 1 ! clk $end
$var wire 1 s hold $end
$var wire 5 v" in [4:0] $end
$var reg 5 w" out [4:0] $end
$upscope $end
$upscope $end
$upscope $end
$enddefinitions $end
#0
$dumpvars
bx w"
bx v"
0u"
bx t"
b100 s"
bx r"
b100000000010010000000000000000 q"
bx p"
bx o"
bx n"
bx m"
bx l"
bx k"
bx j"
bx i"
0h"
0g"
bx f"
bx e"
0d"
0c"
bx b"
bx a"
0`"
bx _"
bx ^"
0]"
bx \"
bx ["
bx Z"
bx Y"
bx X"
bx W"
bx V"
bx U"
0T"
bx S"
bx R"
0Q"
0P"
bx O"
bx N"
0M"
0L"
bx K"
bx J"
0I"
0H"
0G"
bx F"
bx E"
0D"
bx C"
b0xxxxxxxxxxxxxxxxxxxxxxxxxx00 B"
0A"
bx @"
bx ?"
0>"
bx ="
bx <"
0;"
0:"
bx 9"
bx 8"
07"
b100000000010010000000000000000 6"
b0 5"
bx 4"
bx 3"
bx 2"
bx 1"
bx 0"
bx /"
bx ."
0-"
bx ,"
bx +"
0*"
bx )"
bx ("
0'"
bx &"
bx %"
0$"
bx #"
bx ""
bx !"
bx ~
bx }
bx |
bx {
xz
xy
xx
xw
bx v
bx u
bx t
xs
xr
b0 q
bx p
bx o
bx n
bx m
xl
xk
xj
b1 i
bx h
bx g
bx f
bx e
bx d
bx c
xb
bx a
x`
bx _
bx ^
bx ]
x\
x[
xZ
xY
xX
xW
bx V
bx U
bx T
bx S
bx R
bx Q
bx P
b100000000010010000000000000000 O
bx N
b0xxxxxxxxxxxxxxxxxxxxxxxxxx00 M
bx L
bx K
xJ
xI
xH
xG
xF
xE
xD
xC
xB
xA
x@
x?
x>
bx =
b100 <
bx ;
bx :
bx 9
bx 8
bx 7
bx 6
x5
x4
x3
x2
x1
x0
bx /
bx .
bx -
bx ,
bx +
bx *
bx00 )
bx (
bx '
bx &
bx %
bx $
x#
x"
1!
$end
#1
0!
#2
0s
0J
13
05
0@
0D
0G
0Y
b0 +"
0\
1b
b11 U"
b0 g
b0 1"
b100 _
b100 %"
b0 )
b1001 T
b1001 j"
b1001 p"
b1001 W"
b0 V
b0 i"
b0 o"
b0 +
b0 ["
b1001000000000000000000 M
b1001000000000000000000 B"
b0 (
b0 P
b0 9
b100100000 Y"
b1001 -
b1001 l"
b0 /
b0 k"
b0 v"
b1000 =
b1000 0"
b10001100000010110000000000001000 O
b10001100000010110000000000001000 6"
b10001100000010110000000000001000 q"
b100 ;
b100 J"
b100 t"
b100000000010010000000000000000 N
b100000000010010000000000000000 r"
b0xxxxxxxxxxxxxxxxxxxxxxxxxx00 L
b0xxxxxxxxxxxxxxxxxxxxxxxxxx00 C"
b0xxxxxxxxxxxxxxxxxxxxxxxxxx00 E"
b10 i
b1000 <
b1000 s"
b100 q
b100 5"
1!
#3
0!
#4
1#
b0 8"
b0 e
b0 }
1D
1G
05
1b
b1010011 U"
b0 g
b0 1"
b0 n
b0 m
0z
0w
0y
0x
b0 v
b0 |
b0 a
b0 u
b10 h
b10 {
b10 #"
b1001 &
b1001 a"
b10 ""
b1001 p
b1001 ?"
b0 o
b0 t
b100000 )
b1011 W"
b1011 T
b1011 j"
b1011 p"
b10001100000010100000000000000100 O
b10001100000010100000000000000100 6"
b10001100000010100000000000000100 q"
0X
b0 ."
0[
1`
12
b0 f
b0 ~
0C
0?
b1000 ^"
0F
04
b0 8
b1001 ,
b0 Q
b0 !"
b1001 S
b0 U
b1000 +
b1000 ["
b1011000000000000100000 M
b1011000000000000100000 B"
b1000 P
b101100000 Y"
b1011 -
b1011 l"
b100011 =
b100011 0"
b1100 <
b1100 s"
b1000 q
b1000 5"
b11 i
b0xxxxxxxxxxxxxxxxxxxxxxxxxx00 K
b0xxxxxxxxxxxxxxxxxxxxxxxxxx00 F"
b1001000000000000000000 L
b1001000000000000000000 C"
b1001000000000000000000 E"
0I
b100 ^
b100 &"
b100 ("
b0 ,"
b11 V"
b100 :
b100 K"
b100100000 Z"
b0 *
b0 \"
b1001 X"
b0 .
b0 w"
b10001100000010110000000000001000 N
b10001100000010110000000000001000 r"
b101000 _
b101000 %"
b1000 ;
b1000 J"
b1000 t"
1!
#5
0!
#6
0#
b1000 8"
b1000 e
b1000 }
0r
0l
0k
0j
1w
1x
b10000 )
b1010 W"
b1010 T
b1010 j"
b1010 p"
b0 ""
b1011 &
b1011 a"
b0 7
b0 4"
b0 N"
b0 2"
b1011 p
b1011 ?"
b100 +
b100 ["
b1010000000000000010000 M
b1010000000000000010000 B"
b100 P
b101000000 Y"
b1010 -
b1010 l"
b1011 S
b1000 Q
b1000 !"
b11111111111111111111111111111000 v
b1000 |
b1000 a
b1000 u
b1011 ,
1C
b1110 ^"
1F
0>
0E
0B
b10 R"
11
b0 d
b0 <"
0W
0Z
b1001010100100100000100000 O
b1001010100100100000100000 6"
b1001010100100100000100000 q"
b11100 _
b11100 %"
b1100 ;
b1100 J"
b1100 t"
b10001100000010100000000000000100 N
b10001100000010100000000000000100 r"
b1011 X"
b1000 *
b1000 \"
b101100000 Z"
b1000 :
b1000 K"
b1010011 V"
b101000 ^
b101000 &"
b101000 ("
b1011000000000000100000 L
b1011000000000000100000 C"
b1011000000000000100000 E"
b1000 _"
1"
b0 9"
b1001 R
b1001 3"
b1001 @"
b1001 %
b1001 b"
b1001 e"
b0 /"
b100 ]
b100 )"
0H
b1001000000000000000000 K
b1001000000000000000000 F"
b100 i
b10000 <
b10000 s"
b1100 q
b1100 5"
1!
#7
0!
#8
b100 8"
b100 e
b100 }
1s
15
0D
0G
0b
b10001010 U"
b10 g
b10 1"
b10 7
b10 4"
b10 N"
b10 2"
b1010 &
b1010 a"
b1010 p
b1010 ?"
b10010000010000000 )
b100001011010111111111111111111 O
b100001011010111111111111111111 6"
b100001011010111111111111111111 q"
b0 '
b0 m"
0A
10
b1000 d
b1000 <"
1E
b11 R"
1B
b1010 ,
b100 Q
b100 !"
b11111111111111111111111111111100 v
b100 |
b100 a
b100 u
b1010 S
b100100000100000 +
b100100000100000 ["
b100101010010010000010000000 M
b100101010010010000010000000 B"
b100100000100000 P
b101001001 Y"
b1001 9
b1001 /
b1001 k"
b1001 v"
b0 =
b0 0"
b10100 <
b10100 s"
b10000 q
b10000 5"
b101 i
b1001 $
b1001 f"
b1001 n"
b0 c
b0 ="
b0 6
b0 O"
b10 S"
b1011000000000000100000 K
b1011000000000000100000 F"
b101000 ]
b101000 )"
b1011 %
b1011 b"
b1011 e"
b1011 R
b1011 3"
b1011 @"
b1000 9"
0"
b1110 _"
b1010000000000000010000 L
b1010000000000000010000 C"
b1010000000000000010000 E"
b11100 ^
b11100 &"
b11100 ("
b1100 :
b1100 K"
b101000000 Z"
b100 *
b100 \"
b1010 X"
b1001010100100100000100000 N
b1001010100100100000100000 r"
b10010000010010000 _
b10010000010010000 %"
b10000 ;
b10000 J"
b10000 t"
1!
#9
0!
#10
b100 p
b100 ?"
b100 8"
b100 e
b100 }
0s
b1 n
b1 7
b1 4"
b1 N"
b11111111111111111111111111111100 v
b100 |
b100 a
b100 u
b1 2"
0`
02
0C
b0 ^"
0F
b100 d
b100 <"
1A
b10 '
b10 m"
b0 V"
b10010000010010000 ^
b10010000010010000 &"
b10010000010010000 ("
b100101010010010000010000000 L
b100101010010010000010000000 C"
b100101010010010000010000000 E"
b100 9"
b1010 R
b1010 3"
b1010 @"
b1010 %
b1010 b"
b1010 e"
b11100 ]
b11100 )"
b1010000000000000010000 K
b1010000000000000010000 F"
b11 S"
b10 6
b10 O"
b1000 c
b1000 ="
b1011 $
b1011 f"
b1011 n"
b110 i
1!
#11
0!
#12
b1 8"
b1 e
b1 }
b11111111111111111111111111111111 v
b1 |
b1 a
b1 u
b1 p
b1 ?"
b10 n
1b
b0 g
b0 1"
b11 U"
05
b1001 &
b1001 a"
b10 ""
b11111111111111111111111111111100 )
b10001011000000000000000000001 O
b10001011000000000000000000001 6"
b10001011000000000000000000001 q"
b1 '
b1 m"
0E
0B
b0 R"
01
b1000 ^"
12
b10 f
b10 ~
14
b1001 8
b100000 Q
b100000 !"
b10 T
b10 j"
b10 p"
b1000000000000000000000000000000010 W"
b10 V
b10 i"
b10 o"
b11111111111111111111111111111111 +
b11111111111111111111111111111111 ["
b101101011111111111111111100 M
b101101011111111111111111100 B"
b11111 (
b1111111111111111 P
b11111 9
b101111111 Y"
b1011 -
b1011 l"
b1011 /
b1011 k"
b1011 v"
b1000 =
b1000 0"
b11000 <
b11000 s"
b10100 q
b10100 5"
b111 i
b1010 $
b1010 f"
b1010 n"
b100 c
b100 ="
b1 6
b1 O"
b100101010010010000010000000 K
b100101010010010000010000000 F"
b10010000010010000 ]
b10010000010010000 )"
b100 R
b100 3"
b100 @"
b0 _"
b10001010 V"
b10000 :
b10000 K"
b101001001 Z"
b100100000100000 *
b100100000100000 \"
b1001 .
b1001 w"
b100001011010111111111111111111 N
b100001011010111111111111111111 r"
b10000 _
b10000 %"
b10100 ;
b10100 J"
b10100 t"
1!
#13
0!
#14
03
b10 +"
1\
15
0b
b10000100 U"
b1 g
b1 1"
b0 n
0w
0x
b10 p
b10 ?"
b0 7
b0 4"
b0 N"
b100 '
b100 m"
b100 )
b1000000000000000000000000000000000 W"
b0 T
b0 j"
b0 p"
b0 ""
b11111111111111111111111111111111 a
b11111111111111111111111111111111 u
b1011 &
b1011 a"
b0 2"
b11 v
b1 |
b10 o
b10 t
b1 +
b1 ["
b101100000000000000000000100 M
b101100000000000000000000100 B"
b0 (
b1 P
b0 9
b0 Y"
b0 -
b0 l"
b100 =
b100 0"
b10 S
b10 U
b111111 Q
b111111 !"
b11111 8
b1011 ,
1`
b0 f
b0 ~
04
b10 R"
11
b1 d
b1 <"
0A
00
b10000000000001111111111111100 O
b10000000000001111111111111100 6"
b10000000000001111111111111100 q"
b11100 _
b11100 %"
b11000 ;
b11000 J"
b11000 t"
b10001011000000000000000000001 N
b10001011000000000000000000001 r"
b1011 .
b1011 w"
b1000000000000000000000000000000010 X"
b11111111111111111111111111111111 *
b11111111111111111111111111111111 \"
b101111111 Z"
b10100 :
b10100 K"
b11 V"
b10000 ^
b10000 &"
b10000 ("
b101101011111111111111111100 L
b101101011111111111111111100 C"
b101101011111111111111111100 E"
b1000 _"
b1 9"
b1 R
b1 3"
b1 @"
b1001 %
b1001 b"
b1001 e"
b0 S"
b1000 i
b11100 <
b11100 s"
b11000 q
b11000 5"
1!
#15
0!
#16
b1 o
b1 t
b1 8"
b1 e
b1 }
b1 m
b110 h
b110 {
b110 #"
b0 &
b0 a"
b0 p
b0 ?"
b11111111111111111111111111110000 )
b10101100000010010000000000000000 O
b10101100000010010000000000000000 6"
b10101100000010010000000000000000 q"
b0 W"
b0 V
b0 i"
b0 o"
b1 '
b1 m"
10
b10 ."
1[
0`
b0 ^"
02
b1 f
b1 ~
14
b0 8
b0 ,
b1 Q
b1 !"
b1 v
b1 |
b0 a
b0 u
b0 S
b11111111111111111111111111111100 +
b11111111111111111111111111111100 ["
b111111111111110000 M
b111111111111110000 B"
b11111 (
b1111111111111100 P
b11111 Y"
b11111 9
b0 /
b0 k"
b0 v"
b100000 <
b100000 s"
b11100 q
b11100 5"
b1001 i
b1001 $
b1001 f"
b1001 n"
b1 c
b1 ="
b0 6
b0 O"
b10 S"
b101101011111111111111111100 K
b101101011111111111111111100 F"
b10000 ]
b10000 )"
b1011 %
b1011 b"
b1011 e"
b10 R
b10 3"
b10 @"
b101100000000000000000000100 L
b101100000000000000000000100 C"
b101100000000000000000000100 E"
b11100 ^
b11100 &"
b11100 ("
b10 ,"
b10000100 V"
b11000 :
b11000 K"
b0 Z"
b1 *
b1 \"
b1000000000000000000000000000000000 X"
b10000000000001111111111111100 N
b10000000000001111111111111100 r"
b1100 _
b1100 %"
b11100 ;
b11100 J"
b11100 t"
1!
#17
0!
#18
1#
b0 8"
b0 e
b0 }
b0 v
b0 |
b0 o
b0 t
1b
1@
03
b0 +"
0\
b10100001 U"
b0 g
b0 1"
b0 m
b0 n
b0 )
b1 W"
b1 T
b1 j"
b1 p"
b11111 &
b11111 a"
b0 +
b0 ["
b1001000000000000000000 M
b1001000000000000000000 B"
b0 (
b0 P
b0 9
b100100000 Y"
b1001 -
b1001 l"
b101011 =
b101011 0"
b0 U
b111100 Q
b111100 !"
b11111 8
b0 R"
01
1Z
bx O
bx 6"
bx q"
b100000 _
b100000 %"
b100000 ;
b100000 J"
b100000 t"
b10101100000010010000000000000000 N
b10101100000010010000000000000000 r"
b0 .
b0 w"
b0 X"
b11111111111111111111111111111100 *
b11111111111111111111111111111100 \"
b11111 Z"
b11100 :
b11100 K"
b1100 ^
b1100 &"
b1100 ("
b111111111111110000 L
b111111111111110000 C"
b111111111111110000 E"
b0 _"
b0 R
b0 3"
b0 @"
b0 %
b0 b"
b0 e"
b10 /"
b11100 ]
b11100 )"
b101100000000000000000000100 K
b101100000000000000000000100 F"
b1011 $
b1011 f"
b1011 n"
b1010 i
b100100 <
b100100 s"
b100000 q
b100000 5"
1!
#19
0!
#20
1l
1k
1j
13
0@
0b
b10001010 U"
b10 g
b10 1"
b0 m
1r
b10 h
b10 {
b10 #"
b0 &
b0 a"
b10 ""
b1 p
b1 ?"
bx00 )
00
b0 d
b0 <"
b0 ."
0[
1`
b0 f
b0 ~
b1 ^"
1?
b0 8
b1001 ,
b0 Q
b0 !"
b1 S
bx T
bx j"
bx p"
bx W"
bx V
bx i"
bx o"
bx +
bx ["
b0xxxxxxxxxxxxxxxxxxxxxxxxxx00 M
b0xxxxxxxxxxxxxxxxxxxxxxxxxx00 B"
bx (
bx P
bx 9
bx Y"
bx -
bx l"
bx /
bx k"
bx v"
bx =
bx 0"
b101000 <
b101000 s"
b100100 q
b100100 5"
b1011 i
b0 $
b0 f"
b0 n"
b0 S"
b111111111111110000 K
b111111111111110000 F"
b1100 ]
b1100 )"
b11111 %
b11111 b"
b11111 e"
b0 9"
1"
b1001000000000000000000 L
b1001000000000000000000 C"
b1001000000000000000000 E"
b100000 ^
b100000 &"
b100000 ("
b0 ,"
b10100001 V"
b100000 :
b100000 K"
b100100000 Z"
b0 *
b0 \"
b1 X"
bx N
bx r"
bx _
bx %"
b100100 ;
b100100 J"
b100100 t"
1!
#21
0!
#22
0l
0k
0j
0r
b0 _
b0 %"
b0 )
b0 T
b0 j"
b0 p"
b0 W"
b0 V
b0 i"
b0 o"
b0 p
b0 ?"
b0 +
b0 ["
b0 M
b0 B"
b0 (
b0 P
b0 9
b0 Y"
b0 -
b0 l"
b0 /
b0 k"
b0 v"
b0 =
b0 0"
b0 S
b0 ,
0`
12
b10 f
b10 ~
b1000 ^"
0?
0Z
b0 '
b0 m"
b1001010100100100000100000 O
b1001010100100100000100000 6"
b1001010100100100000100000 q"
b0 ;
b0 J"
b0 t"
b0 N
b0 r"
bx .
bx w"
b0 X"
b0 Z"
b100100 :
b100100 K"
b10001010 V"
b0 ^
b0 &"
b0 ("
b0 L
b0 C"
b0 E"
b0 %
b0 b"
b0 e"
b0 /"
b0 ]
b0 )"
b0 K
b0 F"
b0 c
b0 ="
b11111 $
b11111 f"
b11111 n"
b1100 i
b10000 <
b10000 s"
b1100 q
b1100 5"
1!
#23
0!
#24
b1 n
b1 m
b10010000010000000 )
b100001011010111111111111111111 O
b100001011010111111111111111111 6"
b100001011010111111111111111111 q"
b1 T
b1 j"
b1 p"
b100000000000000000000000000000001 W"
b1 V
b1 i"
b1 o"
b10 R"
11
b100100000100000 +
b100100000100000 ["
b100101010010010000010000000 M
b100101010010010000010000000 B"
b100100000100000 P
b1001 9
b101001001 Y"
b1010 -
b1010 l"
b1001 /
b1001 k"
b1001 v"
b10100 <
b10100 s"
b10000 q
b10000 5"
b1101 i
b0 $
b0 f"
b0 n"
b1000 _"
b0 :
b0 K"
b0 .
b0 w"
b1001010100100100000100000 N
b1001010100100100000100000 r"
b10010000010010000 _
b10010000010010000 %"
b10000 ;
b10000 J"
b10000 t"
1!
#25
0!
#26
0#
b10 8"
b10 e
b10 }
b1 a
b1 u
b1 p
b1 ?"
b0 v
b10 |
b1 o
b1 t
1b
b0 g
b0 1"
b11 U"
05
b0 n
b0 m
b11111111111111111111111111111100 )
b1001 &
b1001 a"
b11111111111111111111111111111111 +
b11111111111111111111111111111111 ["
b101101011111111111111111100 M
b101101011111111111111111100 B"
b11111 (
b1111111111111111 P
b11111 9
b101111111 Y"
b1011 -
b1011 l"
b1011 /
b1011 k"
b1011 v"
b1000 =
b1000 0"
b1 S
b1 U
b100000 Q
b100000 !"
b1001 8
b1010 ,
10
b10001011000000000000000000001 O
b10001011000000000000000000001 6"
b10001011000000000000000000001 q"
b10000 _
b10000 %"
b10100 ;
b10100 J"
b10100 t"
b100001011010111111111111111111 N
b100001011010111111111111111111 r"
b1001 .
b1001 w"
b100000000000000000000000000000001 X"
b100100000100000 *
b100100000100000 \"
b101001001 Z"
b10000 :
b10000 K"
b10010000010010000 ^
b10010000010010000 &"
b10010000010010000 ("
b100101010010010000010000000 L
b100101010010010000010000000 C"
b100101010010010000010000000 E"
b10 S"
b1110 i
b11000 <
b11000 s"
b10100 q
b10100 5"
1!
#27
0!
#28
1#
b0 8"
b0 e
b0 }
03
b10 +"
1\
15
0b
b10000100 U"
b1 g
b1 1"
b10 v
b0 |
b11111111111111111111111111111111 a
b11111111111111111111111111111111 u
b1011 &
b1011 a"
b0 ""
b100 )
b100000000000000000000000000000000 W"
b0 T
b0 j"
b0 p"
b10000000000001111111111111100 O
b10000000000001111111111111100 6"
b10000000000001111111111111100 q"
b10 d
b10 <"
1`
b0 f
b0 ~
04
b11111 8
b1011 ,
b111111 Q
b111111 !"
b1 +
b1 ["
b101100000000000000000000100 M
b101100000000000000000000100 B"
b0 (
b1 P
b0 9
b0 Y"
b0 -
b0 l"
b100 =
b100 0"
b11100 <
b11100 s"
b11000 q
b11000 5"
b1111 i
b100101010010010000010000000 K
b100101010010010000010000000 F"
b10010000010010000 ]
b10010000010010000 )"
b1001 %
b1001 b"
b1001 e"
b1 R
b1 3"
b1 @"
b10 9"
0"
b101101011111111111111111100 L
b101101011111111111111111100 C"
b101101011111111111111111100 E"
b10000 ^
b10000 &"
b10000 ("
b11 V"
b10100 :
b10100 K"
b101111111 Z"
b11111111111111111111111111111111 *
b11111111111111111111111111111111 \"
b1011 .
b1011 w"
b10001011000000000000000000001 N
b10001011000000000000000000001 r"
b11100 _
b11100 %"
b11000 ;
b11000 J"
b11000 t"
1!
#29
0!
