pipeline/mipsForwHazaBeq4/test.vcd
$date
	Tue Nov 19 11:51:13 2019
$end
$version
	Icarus Verilog
$end
$timescale
	1s
$end
$scope module top $end
$var wire 1 ! clk $end
$scope module CLK $end
$var reg 1 ! out $end
$upscope $end
$scope module CPU $end
$var wire 1 " beq_hazard $end
$var wire 1 # beq_hazard1 $end
$var wire 1 ! clk $end
$var wire 1 $ forward_branch_a $end
$var wire 1 % forward_branch_b $end
$var wire 1 & lwbeq_hazard $end
$var wire 1 ' pcsrc $end
$var wire 1 ( stall_s1 $end
$var wire 1 ) zero_s4 $end
$var wire 1 * zero_s3 $end
$var wire 5 + wrreg_s5 [4:0] $end
$var wire 5 , wrreg_s4 [4:0] $end
$var wire 5 - wrreg [4:0] $end
$var wire 32 . wrdata_s5 [31:0] $end
$var wire 5 / shamt [4:0] $end
$var wire 32 0 seimm_sl2 [31:0] $end
$var wire 32 1 seimm_s3 [31:0] $end
$var wire 32 2 seimm [31:0] $end
$var wire 5 3 rt_s3 [4:0] $end
$var wire 5 4 rt [4:0] $end
$var wire 5 5 rs_s3 [4:0] $end
$var wire 5 6 rs [4:0] $end
$var wire 1 7 regwrite_s5 $end
$var wire 1 8 regwrite_s4 $end
$var wire 1 9 regwrite_s3 $end
$var wire 1 : regwrite $end
$var wire 1 ; regdst_s3 $end
$var wire 1 < regdst $end
$var wire 32 = rdata_s5 [31:0] $end
$var wire 32 > rdata [31:0] $end
$var wire 5 ? rd_s3 [4:0] $end
$var wire 5 @ rd [4:0] $end
$var wire 32 A pc4_s3 [31:0] $end
$var wire 32 B pc4_s2 [31:0] $end
$var wire 32 C pc4 [31:0] $end
$var wire 6 D opcode [5:0] $end
$var wire 32 E mxoutB [31:0] $end
$var wire 32 F mxoutA [31:0] $end
$var wire 1 G memwrite_s4 $end
$var wire 1 H memwrite_s3 $end
$var wire 1 I memwrite $end
$var wire 1 J memtoreg_s5 $end
$var wire 1 K memtoreg_s4 $end
$var wire 1 L memtoreg_s3 $end
$var wire 1 M memtoreg $end
$var wire 1 N memread_s4 $end
$var wire 1 O memread_s3 $end
$var wire 1 P memread $end
$var wire 1 Q jump_s4 $end
$var wire 1 R jump_s3 $end
$var wire 1 S jump_s2 $end
$var wire 32 T jaddr_s4 [31:0] $end
$var wire 32 U jaddr_s3 [31:0] $end
$var wire 32 V jaddr_s2 [31:0] $end
$var wire 32 W inst_s2 [31:0] $end
$var wire 32 X inst [31:0] $end
$var wire 16 Y imm [15:0] $end
$var wire 6 Z funct [5:0] $end
$var wire 6 [ func_s2 [5:0] $end
$var wire 32 \ data2_s4 [31:0] $end
$var wire 32 ] data2_s3 [31:0] $end
$var wire 32 ^ data2 [31:0] $end
$var wire 32 _ data1_s3 [31:0] $end
$var wire 32 ` data1 [31:0] $end
$var wire 1 a branch_ne_s4 $end
$var wire 1 b branch_ne_s3 $end
$var wire 1 c branch_ne_s2 $end
$var wire 1 d branch_eq_s4 $end
$var wire 1 e branch_eq_s3 $end
$var wire 1 f branch_eq_s2 $end
$var wire 32 g baddr_s4 [31:0] $end
$var wire 32 h baddr_s3 [31:0] $end
$var wire 32 i baddr_s2 [31:0] $end
$var wire 1 j alusrc_s3 $end
$var wire 32 k alusrc_data2 [31:0] $end
$var wire 1 l alusrc $end
$var wire 32 m alurslt_s5 [31:0] $end
$var wire 32 n alurslt_s4 [31:0] $end
$var wire 32 o alurslt [31:0] $end
$var wire 2 p aluop_s3 [1:0] $end
$var wire 2 q aluop [1:0] $end
$var wire 4 r aluctl [3:0] $end
$var reg 6 s clock_counter [5:0] $end
$var reg 1 t flush_s1 $end
$var reg 1 u flush_s2 $end
$var reg 1 v flush_s3 $end
$var reg 2 w forward_a [1:0] $end
$var reg 2 x forward_b [1:0] $end
$var reg 32 y fw_data1_s3 [31:0] $end
$var reg 32 z fw_data2_s3 [31:0] $end
$var reg 32 { pc [31:0] $end
$var reg 1 | stall_s1_s2 $end
$scope module alu1 $end
$var wire 32 } a [31:0] $end
$var wire 32 ~ b [31:0] $end
$var wire 1 * zero $end
$var wire 32 !" sub_ab [31:0] $end
$var wire 1 "" slt $end
$var wire 1 #" oflow_sub $end
$var wire 1 $" oflow_add $end
$var wire 1 %" oflow $end
$var wire 4 &" ctl [3:0] $end
$var wire 32 '" add_ab [31:0] $end
$var reg 32 (" out [31:0] $end
$upscope $end
$scope module alu_ctl1 $end
$var wire 2 )" aluop [1:0] $end
$var wire 6 *" funct [5:0] $end
$var reg 4 +" _funct [3:0] $end
$var reg 4 ," aluctl [3:0] $end
$upscope $end
$scope module baddr_s2_s3 $end
$var wire 1 u clear $end
$var wire 1 ! clk $end
$var wire 1 -" hold $end
$var wire 32 ." in [31:0] $end
$var reg 32 /" out [31:0] $end
$upscope $end
$scope module baddr_s3_s4 $end
$var wire 1 v clear $end
$var wire 1 ! clk $end
$var wire 1 0" hold $end
$var wire 32 1" in [31:0] $end
$var reg 32 2" out [31:0] $end
$upscope $end
$scope module branch_s2_s3 $end
$var wire 1 u clear $end
$var wire 1 ! clk $end
$var wire 1 3" hold $end
$var wire 2 4" in [1:0] $end
$var reg 2 5" out [1:0] $end
$upscope $end
$scope module branch_s3_s4 $end
$var wire 1 v clear $end
$var wire 1 ! clk $end
$var wire 1 6" hold $end
$var wire 2 7" in [1:0] $end
$var reg 2 8" out [1:0] $end
$upscope $end
$scope module ctl1 $end
$var wire 6 9" func [5:0] $end
$var wire 6 :" opcode [5:0] $end
$var reg 2 ;" aluop [1:0] $end
$var reg 1 l alusrc $end
$var reg 1 f branch_eq $end
$var reg 1 c branch_ne $end
$var reg 1 S jump $end
$var reg 1 P memread $end
$var reg 1 M memtoreg $end
$var reg 1 I memwrite $end
$var reg 1 < regdst $end
$var reg 1 : regwrite $end
$upscope $end
$scope module dm1 $end
$var wire 7 <" addr [6:0] $end
$var wire 1 ! clk $end
$var wire 1 N rd $end
$var wire 1 G wr $end
$var wire 32 =" wdata [31:0] $end
$var wire 32 >" rdata [31:0] $end
$upscope $end
$scope module im1 $end
$var wire 32 ?" addr [31:0] $end
$var wire 1 ! clk $end
$var wire 32 @" data [31:0] $end
$upscope $end
$scope module reg_alurslt $end
$var wire 1 v clear $end
$var wire 1 ! clk $end
$var wire 1 A" hold $end
$var wire 32 B" in [31:0] $end
$var reg 32 C" out [31:0] $end
$upscope $end
$scope module reg_alurslt_s4 $end
$var wire 1 D" clear $end
$var wire 1 ! clk $end
$var wire 1 E" hold $end
$var wire 32 F" in [31:0] $end
$var reg 32 G" out [31:0] $end
$upscope $end
$scope module reg_data2_s3 $end
$var wire 1 v clear $end
$var wire 1 ! clk $end
$var wire 1 H" hold $end
$var wire 32 I" in [31:0] $end
$var reg 32 J" out [31:0] $end
$upscope $end
$scope module reg_jaddr_s3 $end
$var wire 1 u clear $end
$var wire 1 ! clk $end
$var wire 1 K" hold $end
$var wire 32 L" in [31:0] $end
$var reg 32 M" out [31:0] $end
$upscope $end
$scope module reg_jaddr_s4 $end
$var wire 1 v clear $end
$var wire 1 ! clk $end
$var wire 1 N" hold $end
$var wire 32 O" in [31:0] $end
$var reg 32 P" out [31:0] $end
$upscope $end
$scope module reg_jump_s3 $end
$var wire 1 u clear $end
$var wire 1 ! clk $end
$var wire 1 Q" hold $end
$var wire 1 S in $end
$var reg 1 R out $end
$upscope $end
$scope module reg_jump_s4 $end
$var wire 1 v clear $end
$var wire 1 ! clk $end
$var wire 1 R" hold $end
$var wire 1 R in $end
$var reg 1 Q out $end
$upscope $end
$scope module reg_pc4_s2 $end
$var wire 1 S" clear $end
$var wire 1 ! clk $end
$var wire 1 | hold $end
$var wire 32 T" in [31:0] $end
$var reg 32 U" out [31:0] $end
$upscope $end
$scope module reg_rdata_s4 $end
$var wire 1 V" clear $end
$var wire 1 ! clk $end
$var wire 1 W" hold $end
$var wire 32 X" in [31:0] $end
$var reg 32 Y" out [31:0] $end
$upscope $end
$scope module reg_regwrite_s4 $end
$var wire 1 Z" clear $end
$var wire 1 ! clk $end
$var wire 1 [" hold $end
$var wire 2 \" in [1:0] $end
$var reg 2 ]" out [1:0] $end
$upscope $end
$scope module reg_s2_control $end
$var wire 1 | clear $end
$var wire 1 ! clk $end
$var wire 1 ^" hold $end
$var wire 8 _" in [7:0] $end
$var reg 8 `" out [7:0] $end
$upscope $end
$scope module reg_s2_mem $end
$var wire 1 u clear $end
$var wire 1 ! clk $end
$var wire 1 | hold $end
$var wire 64 a" in [63:0] $end
$var reg 64 b" out [63:0] $end
$upscope $end
$scope module reg_s2_rt_rd $end
$var wire 1 u clear $end
$var wire 1 ! clk $end
$var wire 1 | hold $end
$var wire 10 c" in [9:0] $end
$var reg 10 d" out [9:0] $end
$upscope $end
$scope module reg_s2_seimm $end
$var wire 1 u clear $end
$var wire 1 ! clk $end
$var wire 1 | hold $end
$var wire 32 e" in [31:0] $end
$var reg 32 f" out [31:0] $end
$upscope $end
$scope module reg_s3 $end
$var wire 1 v clear $end
$var wire 1 ! clk $end
$var wire 1 g" hold $end
$var wire 4 h" in [3:0] $end
$var reg 4 i" out [3:0] $end
$upscope $end
$scope module reg_wrreg $end
$var wire 1 v clear $end
$var wire 1 ! clk $end
$var wire 1 j" hold $end
$var wire 5 k" in [4:0] $end
$var reg 5 l" out [4:0] $end
$upscope $end
$scope module reg_wrreg_s4 $end
$var wire 1 m" clear $end
$var wire 1 ! clk $end
$var wire 1 n" hold $end
$var wire 5 o" in [4:0] $end
$var reg 5 p" out [4:0] $end
$upscope $end
$scope module reg_zero_s3_s4 $end
$var wire 1 q" clear $end
$var wire 1 ! clk $end
$var wire 1 r" hold $end
$var wire 1 * in $end
$var reg 1 ) out $end
$upscope $end
$scope module regm1 $end
$var wire 1 ! clk $end
$var wire 32 s" data1 [31:0] $end
$var wire 32 t" data2 [31:0] $end
$var wire 5 u" read1 [4:0] $end
$var wire 5 v" read2 [4:0] $end
$var wire 1 7 regwrite $end
$var wire 32 w" wrdata [31:0] $end
$var wire 5 x" wrreg [4:0] $end
$var reg 32 y" _data1 [31:0] $end
$var reg 32 z" _data2 [31:0] $end
$upscope $end
$scope module regr_im_s2 $end
$var wire 1 t clear $end
$var wire 1 ! clk $end
$var wire 1 ( hold $end
$var wire 32 {" in [31:0] $end
$var reg 32 |" out [31:0] $end
$upscope $end
$scope module regr_pc4_s2 $end
$var wire 1 t clear $end
$var wire 1 ! clk $end
$var wire 1 ( hold $end
$var wire 32 }" in [31:0] $end
$var reg 32 ~" out [31:0] $end
$upscope $end
$scope module regr_s2_rs $end
$var wire 1 !# clear $end
$var wire 1 ! clk $end
$var wire 1 | hold $end
$var wire 5 "# in [4:0] $end
$var reg 5 ## out [4:0] $end
$upscope $end
$upscope $end
$upscope $end
$enddefinitions $end
#0
$dumpvars
bx ##
bx "#
0!#
bx ~"
b100 }"
bx |"
b100000000010100000000000000011 {"
bx z"
bx y"
bx x"
bx w"
bx v"
bx u"
bx t"
bx s"
0r"
0q"
bx p"
bx o"
0n"
0m"
bx l"
bx k"
0j"
bx i"
bx h"
0g"
bx f"
bx e"
bx d"
bx c"
bx b"
bx a"
bx `"
bx _"
0^"
bx ]"
bx \"
0["
0Z"
bx Y"
bx X"
0W"
0V"
bx U"
bx T"
0S"
0R"
0Q"
bx P"
bx O"
0N"
bx M"
b0xxxxxxxxxxxxxxxxxxxxxxxxxx00 L"
0K"
bx J"
bx I"
0H"
bx G"
bx F"
0E"
0D"
bx C"
bx B"
0A"
b100000000010100000000000000011 @"
b0 ?"
bx >"
bx ="
bx <"
bx ;"
bx :"
bx 9"
bx 8"
bx 7"
06"
bx 5"
bx 4"
03"
bx 2"
bx 1"
00"
bx /"
bx ."
0-"
bx ,"
bx +"
bx *"
bx )"
bx ("
bx '"
bx &"
x%"
x$"
x#"
x""
bx !"
bx ~
bx }
x|
b0 {
bx z
bx y
bx x
bx w
xv
xu
xt
b1 s
bx r
bx q
bx p
bx o
bx n
bx m
xl
bx k
xj
bx i
bx h
bx g
xf
xe
xd
xc
xb
xa
bx `
bx _
bx ^
bx ]
bx \
bx [
bx Z
bx Y
b100000000010100000000000000011 X
bx W
b0xxxxxxxxxxxxxxxxxxxxxxxxxx00 V
bx U
bx T
xS
xR
xQ
xP
xO
xN
xM
xL
xK
xJ
xI
xH
xG
bx F
bx E
bx D
b100 C
bx B
bx A
bx @
bx ?
bx >
bx =
x<
x;
x:
x9
x8
x7
bx 6
bx 5
bx 4
bx 3
bx 2
bx 1
bx00 0
bx /
bx .
bx -
bx ,
bx +
x*
x)
x(
x'
x&
x%
x$
x#
x"
1!
$end
#1
0!
#2
0v
0u
0t
0'
0(
0"
0&
0#
0|
0S
1:
0<
0I
0M
0P
0c
b0 4"
0f
1l
b11 _"
b0 q
b0 ;"
b11 [
b11 9"
b10000 i
b10000 ."
b1100 0
b1010 ^
b1010 t"
b1010 z"
b1010 a"
b0 `
b0 s"
b0 y"
b11 2
b11 e"
b1010000000000000001100 V
b1010000000000000001100 L"
b0 /
b11 Y
b0 @
b101000000 c"
b1010 4
b1010 v"
b0 6
b0 u"
b0 "#
b1000 D
b1000 :"
b100000000010110000000000000100 X
b100000000010110000000000000100 @"
b100000000010110000000000000100 {"
b100 B
b100 T"
b100 ~"
b100000000010100000000000000011 W
b100000000010100000000000000011 |"
b0xxxxxxxxxxxxxxxxxxxxxxxxxx00 U
b0xxxxxxxxxxxxxxxxxxxxxxxxxx00 M"
b0xxxxxxxxxxxxxxxxxxxxxxxxxx00 O"
b10 s
b1000 C
b1000 }"
b100 {
b100 ?"
1!
#3
0!
#4
0*
b11 B"
b11 o
b11 ("
0<
1l
b11 _"
b0 q
b0 ;"
b0 x
b0 w
0%"
1""
0$"
1#"
b11111111111111111111111111111101 !"
b11 '"
b11 k
b11 ~
b10 r
b10 &"
b10 ,"
b1010 -
b1010 k"
b0 +"
b1010 z
b1010 I"
b0 y
b0 }
b100 [
b100 9"
b10000 0
b1011 a"
b1011 ^
b1011 t"
b1011 z"
b100001011011000000000000000000 X
b100001011011000000000000000000 @"
b100001011011000000000000000000 {"
0b
b0 7"
0e
1j
19
b0 p
b0 )"
0L
0H
b1000 h"
0O
0;
b0 ?
b1010 3
b11 Z
b11 *"
b1010 ]
b0 _
b100 2
b100 e"
b1011000000000000010000 V
b1011000000000000010000 L"
b100 Y
b101100000 c"
b1011 4
b1011 v"
b1100 C
b1100 }"
b1000 {
b1000 ?"
b11 s
b0xxxxxxxxxxxxxxxxxxxxxxxxxx00 T
b0xxxxxxxxxxxxxxxxxxxxxxxxxx00 P"
b1010000000000000001100 U
b1010000000000000001100 M"
b1010000000000000001100 O"
0R
b10000 h
b10000 /"
b10000 1"
b0 5"
b11 `"
b100 A
b100 U"
b101000000 d"
b11 1
b11 f"
b1010 b"
b0 5
b0 ##
b100000000010110000000000000100 W
b100000000010110000000000000100 |"
b11000 i
b11000 ."
b1000 B
b1000 T"
b1000 ~"
1!
#5
0!
#6
0<
1l
b11 _"
b0 q
b0 ;"
b100 B"
b100 o
b100 ("
b0 [
b0 9"
b0 0
b1100 ^
b1100 t"
b1100 z"
b101100000000000000000000000000001100 a"
b1011 `
b1011 s"
b1011 y"
b1011 -
b1011 k"
b0 >
b0 >"
b0 X"
b0 <"
b1011 z
b1011 I"
b1100 E
b1011 F
b0 2
b0 e"
b101101100000000000000000000 V
b101101100000000000000000000 L"
b0 Y
b110000000 c"
b1100 4
b1100 v"
b1011 6
b1011 u"
b1011 "#
b1011 ]
b100 Z
b100 *"
b11111111111111111111111111111100 !"
b100 '"
b100 k
b100 ~
b1011 3
0G
0N
0K
b10 \"
18
b11 n
b11 F"
0%
0$
0a
0d
b100001010010101111111111111111 X
b100001010010101111111111111111 @"
b100001010010101111111111111111 {"
b1100 i
b1100 ."
b1100 B
b1100 T"
b1100 ~"
b100001011011000000000000000000 W
b100001011011000000000000000000 |"
b1011 b"
b100 1
b100 f"
b101100000 d"
b1000 A
b1000 U"
b11000 h
b11000 /"
b11000 1"
b1011000000000000010000 U
b1011000000000000010000 M"
b1011000000000000010000 O"
b1000 i"
0)
b11 C"
b1010 \
b1010 ="
b1010 J"
b1010 ,
b1010 l"
b1010 o"
b0 8"
b10000 g
b10000 2"
0Q
b1010000000000000001100 T
b1010000000000000001100 P"
b100 s
b10000 C
b10000 }"
b1100 {
b1100 ?"
1!
#7
0!
#8
0<
1l
b11 _"
b0 q
b0 ;"
b100 B"
b100 o
b100 ("
b0 x
b1 w
0""
0#"
b1 >
b1 >"
b1 X"
b11 E
b11 F
b1 <"
b1100 -
b1100 k"
b10 +"
b1100 z
b1100 I"
b100 y
b100 }
b111111 [
b111111 9"
b11111111111111111111111111111100 0
b10001010000000000000000000011 X
b10001010000000000000000000011 @"
b10001010000000000000000000011 {"
b11 ^
b11 t"
b11 z"
b1100000000000000000000000000000011 a"
b11 `
b11 s"
b11 y"
b11 .
b11 w"
0J
17
b100 n
b100 F"
b1100 3
b0 Z
b0 *"
b100 !"
b100 '"
b0 k
b0 ~
b1100 ]
b1011 _
b11111111111111111111111111111111 2
b11111111111111111111111111111111 e"
b101001010111111111111111100 V
b101001010111111111111111100 L"
b11111 /
b1111111111111111 Y
b11111 @
b101011111 c"
b1010 4
b1010 v"
b1010 6
b1010 u"
b1010 "#
b10100 C
b10100 }"
b10000 {
b10000 ?"
b101 s
b1010 +
b1010 p"
b1010 x"
b11 m
b11 G"
b0 =
b0 Y"
b10 ]"
b1011000000000000010000 T
b1011000000000000010000 P"
b11000 g
b11000 2"
b1011 ,
b1011 l"
b1011 o"
b1011 \
b1011 ="
b1011 J"
b100 C"
b101101100000000000000000000 U
b101101100000000000000000000 M"
b101101100000000000000000000 O"
b1100 h
b1100 /"
b1100 1"
b1100 A
b1100 U"
b110000000 d"
b0 1
b0 f"
b101100000000000000000000000000001100 b"
b1011 5
b1011 ##
b100001010010101111111111111111 W
b100001010010101111111111111111 |"
b1100 i
b1100 ."
b10000 B
b10000 T"
b10000 ~"
1!
#9
0!
#10
1u
1(
1"
1#
b11 y
b11 }
0:
b10 4"
1f
1<
0l
b10000100 _"
b1 q
b1 ;"
b10 B"
b10 o
b10 ("
b0 x
b0 w
b0 E
b11 [
b11 9"
b1100 0
b0 +"
b1010 -
b1010 k"
b1100000000000000000000000000000000 a"
b0 ^
b0 t"
b0 z"
b11 z
b11 I"
b11 2
b11 e"
b101000000000000000000001100 V
b101000000000000000000001100 L"
b0 /
b11 Y
b0 @
b0 c"
b0 4
b0 v"
b100 D
b100 :"
b11 ]
b11 _
b111111 Z
b111111 *"
b100 !"
b10 '"
b11111111111111111111111111111111 k
b11111111111111111111111111111111 ~
b11111 ?
b1010 3
b100 .
b100 w"
b1100010110110000000100000 X
b1100010110110000000100000 @"
b1100010110110000000100000 {"
b100000 i
b100000 ."
b10100 B
b10100 T"
b10100 ~"
b10001010000000000000000000011 W
b10001010000000000000000000011 |"
b1010 5
b1010 ##
b1100000000000000000000000000000011 b"
b11111111111111111111111111111111 1
b11111111111111111111111111111111 f"
b101011111 d"
b10000 A
b10000 U"
b101001010111111111111111100 U
b101001010111111111111111100 M"
b101001010111111111111111100 O"
b1100 \
b1100 ="
b1100 J"
b1100 ,
b1100 l"
b1100 o"
b1100 g
b1100 2"
b101101100000000000000000000 T
b101101100000000000000000000 P"
b1 =
b1 Y"
b100 m
b100 G"
b1011 +
b1011 p"
b1011 x"
b110 s
b11000 C
b11000 }"
b10100 {
b10100 ?"
1!
#11
0!
#12
0u
0*
b10 B"
b10 o
b10 ("
b1 w
0(
0"
0#
b0 >
b0 >"
b0 X"
b10 F
b0 <"
b110 r
b110 &"
b110 ,"
b0 -
b0 k"
b10 +"
b0 z
b0 I"
b10 y
b10 }
1$
b10 n
b10 F"
0j
b0 h"
09
b1 p
b1 )"
1;
b0 ?
b0 3
b0 Z
b0 *"
b10 !"
b10 '"
b0 k
b0 ~
b0 ]
b0 _
b111 s
b1100 +
b1100 p"
b1100 x"
b101001010111111111111111100 T
b101001010111111111111111100 P"
b1010 ,
b1010 l"
b1010 o"
b11 \
b11 ="
b11 J"
b10 C"
b0 U
b0 M"
b0 O"
b0 h
b0 /"
b0 1"
b10000100 `"
b10100 A
b10100 U"
b0 d"
b0 1
b0 f"
b0 b"
1!
#13
0!
#14
0t
1:
b0 4"
0f
b10001010 _"
b10 q
b10 ;"
b0 x
b10 w
0'
b100000 [
b100000 9"
b11000000010000000 0
b0 +"
b100 E
b100 F
b100 ^
b100 t"
b100 z"
b110000000100000 2
b110000000100000 e"
b110001011011000000010000000 V
b110001011011000000010000000 L"
b110000000100000 Y
b1100 @
b101101100 c"
b1011 4
b1011 v"
b1100 6
b1100 u"
b1100 "#
b0 D
b0 :"
b11 _
b11 Z
b11 *"
b10 7"
1e
b0 \"
08
0%
0$
b10 .
b10 w"
b10000000000000000000000000000000100 a"
b100 `
b100 s"
b100 y"
b100001010010101111111111111111 X
b100001010010101111111111111111 @"
b100001010010101111111111111111 {"
b11000000010011000 i
b11000000010011000 ."
b11000 B
b11000 T"
b11000 ~"
b1100010110110000000100000 W
b1100010110110000000100000 |"
b1100000000000000000000000000000000 b"
b11 1
b11 f"
b10 5"
b100000 h
b100000 /"
b100000 1"
b101000000000000000000001100 U
b101000000000000000000001100 M"
b101000000000000000000001100 O"
b0 i"
b0 \
b0 ="
b0 J"
b0 ,
b0 l"
b0 o"
b0 g
b0 2"
b0 T
b0 P"
b0 =
b0 Y"
b10 m
b10 G"
b1010 +
b1010 p"
b1010 x"
b1000 s
b11100 C
b11100 }"
b11000 {
b11000 ?"
1!
#15
0!
#16
b100 y
b100 }
b1000 B"
b1000 o
b1000 ("
1l
b0 q
b0 ;"
b11 _"
0<
b0 x
b0 w
0""
0#"
b0 !"
b1000 '"
b100 k
b100 ~
b10 r
b10 &"
b10 ,"
b1100 -
b1100 k"
b10 +"
b100 z
b100 I"
b10 E
b10 F
b111111 [
b111111 9"
b11111111111111111111111111111100 0
b10001001010011111111111111100 X
b10001001010011111111111111100 @"
b10001001010011111111111111100 {"
07
1d
b0 7"
0e
b1000 h"
19
b10 p
b10 )"
b1100 ?
b1011 3
b100000 Z
b100000 *"
b100 ]
b100 _
b10 ^
b10 t"
b10 z"
b1000000000000000000000000000000010 a"
b10 `
b10 s"
b10 y"
b11111111111111111111111111111111 2
b11111111111111111111111111111111 e"
b101001010111111111111111100 V
b101001010111111111111111100 L"
b11111 /
b1111111111111111 Y
b11111 @
b101011111 c"
b1010 4
b1010 v"
b1010 6
b1010 u"
b1010 "#
b1000 D
b1000 :"
b100000 C
b100000 }"
b11100 {
b11100 ?"
b1001 s
b0 +
b0 p"
b0 x"
b0 ]"
b101000000000000000000001100 T
b101000000000000000000001100 P"
b100000 g
b100000 2"
b10 8"
b110001011011000000010000000 U
b110001011011000000010000000 M"
b110001011011000000010000000 O"
b11000000010011000 h
b11000000010011000 /"
b11000000010011000 1"
b0 5"
b10001010 `"
b11000 A
b11000 U"
b101101100 d"
b110000000100000 1
b110000000100000 f"
b10000000000000000000000000000000100 b"
b1100 5
b1100 ##
b100001010010101111111111111111 W
b100001010010101111111111111111 |"
b11000 i
b11000 ."
b11100 B
b11100 T"
b11100 ~"
1!
#17
0!
#18
1t
1'
b1 B"
b1 o
b1 ("
0:
b10 4"
1f
1<
0l
b10000100 _"
b1 q
b1 ;"
b1001 E
b1001 F
b10 >
b10 >"
b10 X"
b111100 [
b111100 9"
b11111111111111111111111111110000 0
b1001 ^
b1001 t"
b1001 z"
b100100000000000000000000000000001001 a"
b1001 `
b1001 s"
b1001 y"
b0 +"
b11111111111111111111111111111111 k
b11111111111111111111111111111111 ~
b1010 -
b1010 k"
b10 <"
b11 !"
b1 '"
b10 y
b10 }
b10 z
b10 I"
b11111111111111111111111111111100 2
b11111111111111111111111111111100 e"
b100101001111111111111110000 V
b100101001111111111111110000 L"
b1111111111111100 Y
b100111111 c"
b1001 4
b1001 v"
b1001 6
b1001 u"
b1001 "#
b100 D
b100 :"
b10 ]
b10 _
b111111 Z
b111111 *"
b11111 ?
b1010 3
1j
b0 p
b0 )"
0;
b10 \"
18
b1000 n
b1000 F"
0d
b100001100011000000000000000000 X
b100001100011000000000000000000 @"
b100001100011000000000000000000 {"
b10000 i
b10000 ."
b100000 B
b100000 T"
b100000 ~"
b10001001010011111111111111100 W
b10001001010011111111111111100 |"
b1010 5
b1010 ##
b1000000000000000000000000000000010 b"
b11111111111111111111111111111111 1
b11111111111111111111111111111111 f"
b101011111 d"
b11100 A
b11100 U"
b11 `"
b11000 h
b11000 /"
b11000 1"
b101001010111111111111111100 U
b101001010111111111111111100 M"
b101001010111111111111111100 O"
b1000 i"
b1000 C"
b100 \
b100 ="
b100 J"
b1100 ,
b1100 l"
b1100 o"
b0 8"
b11000000010011000 g
b11000000010011000 2"
b110001011011000000010000000 T
b110001011011000000010000000 P"
b1010 s
b100100 C
b100100 }"
b100000 {
b100000 ?"
1!
#19
0!
#20
0t
0'
1*
b0 B"
b0 o
b0 ("
0:
b0 4"
0f
b10001000 _"
b10 q
b10 ;"
b0 x
b0 >
b0 >"
b0 X"
b0 E
b0 F
b0 <"
b110 r
b110 &"
b110 ,"
b11111 -
b11111 k"
b1001 z
b1001 I"
b1001 y
b1001 }
b0 [
b0 9"
b0 0
b10001010000000000000000000011 X
b10001010000000000000000000011 @"
b10001010000000000000000000011 {"
b0 ^
b0 t"
b0 z"
b0 a"
b0 `
b0 s"
b0 y"
b1000 .
b1000 w"
17
b1 n
b1 F"
b10 7"
1e
0j
b0 h"
09
b1 p
b1 )"
1;
b1001 3
b111100 Z
b111100 *"
b0 !"
b10010 '"
b1001 k
b1001 ~
b1001 ]
b1001 _
b0 2
b0 e"
b0 V
b0 L"
b0 /
b0 Y
b0 @
b0 c"
b0 4
b0 v"
b0 6
b0 u"
b0 "#
b0 D
b0 :"
b10100 C
b10100 }"
b10000 {
b10000 ?"
b1011 s
b1100 +
b1100 p"
b1100 x"
b1000 m
b1000 G"
b10 =
b10 Y"
b10 ]"
b101001010111111111111111100 T
b101001010111111111111111100 P"
b11000 g
b11000 2"
b1010 ,
b1010 l"
b1010 o"
b10 \
b10 ="
b10 J"
b1 C"
b100101001111111111111110000 U
b100101001111111111111110000 M"
b100101001111111111111110000 O"
b10000 h
b10000 /"
b10000 1"
b10 5"
b10000100 `"
b100000 A
b100000 U"
b100111111 d"
b11111111111111111111111111111100 1
b11111111111111111111111111111100 f"
b100100000000000000000000000000001001 b"
b1001 5
b1001 ##
b0 W
b0 |"
b0 i
b0 ."
b0 B
b0 T"
b0 ~"
1!
#21
0!
#22
b10 4"
1f
b1 q
b1 ;"
b10000100 _"
0:
b1 F
b0 k
b0 ~
b11 [
b11 9"
b1100 0
b10 +"
b0 -
b0 k"
b10 r
b10 &"
b10 ,"
b100000000000000000000000000000000 a"
b1 `
b1 s"
b1 y"
b0 !"
b0 '"
b0 y
b0 }
b0 z
b0 I"
b11 2
b11 e"
b101000000000000000000001100 V
b101000000000000000000001100 L"
b11 Y
b1010 6
b1010 u"
b1010 "#
b100 D
b100 :"
b0 ]
b0 _
b0 Z
b0 *"
b0 ?
b0 3
b10 p
b10 )"
b0 7"
0e
b0 \"
08
b0 n
b0 F"
1d
b1 .
b1 w"
b1100010110110000000100000 X
b1100010110110000000100000 @"
b1100010110110000000100000 {"
b100000 i
b100000 ."
b10100 B
b10100 T"
b10100 ~"
b10001010000000000000000000011 W
b10001010000000000000000000011 |"
b0 5
b0 ##
b0 b"
b0 1
b0 f"
b0 d"
b0 A
b0 U"
b10001000 `"
b0 5"
b0 h
b0 /"
b0 1"
b0 U
b0 M"
b0 O"
b0 i"
1)
b0 C"
b1001 \
b1001 ="
b1001 J"
b11111 ,
b11111 l"
b11111 o"
b10 8"
b10000 g
b10000 2"
b100101001111111111111110000 T
b100101001111111111111110000 P"
b0 =
b0 Y"
b1 m
b1 G"
b1010 +
b1010 p"
b1010 x"
b1100 s
b11000 C
b11000 }"
b10100 {
b10100 ?"
1!
#23
0!
#24
0*
b1 B"
b1 o
b1 ("
1:
b0 4"
0f
b10001010 _"
b10 q
b10 ;"
b110 r
b110 &"
b110 ,"
b0 +"
b1 !"
b1 '"
b1 y
b1 }
b100 E
b1000 F
b100000 [
b100000 9"
b11000000010000000 0
b100001010010101111111111111111 X
b100001010010101111111111111111 @"
b100001010010101111111111111111 {"
b0 .
b0 w"
07
0d
b10 7"
1e
b1 p
b1 )"
b11 Z
b11 *"
b1 _
b100 ^
b100 t"
b100 z"
b100000000000000000000000000000000100 a"
b1000 `
b1000 s"
b1000 y"
b110000000100000 2
b110000000100000 e"
b110001011011000000010000000 V
b110001011011000000010000000 L"
b110000000100000 Y
b1100 @
b101101100 c"
b1011 4
b1011 v"
b1100 6
b1100 u"
b1100 "#
b0 D
b0 :"
b11100 C
b11100 }"
b11000 {
b11000 ?"
b1101 s
b11111 +
b11111 p"
b11111 x"
b0 m
b0 G"
b0 ]"
b0 T
b0 P"
b0 g
b0 2"
b0 8"
b0 ,
b0 l"
b0 o"
b0 \
b0 ="
b0 J"
b101000000000000000000001100 U
b101000000000000000000001100 M"
b101000000000000000000001100 O"
b100000 h
b100000 /"
b100000 1"
b10 5"
b10000100 `"
b10100 A
b10100 U"
b11 1
b11 f"
b100000000000000000000000000000000 b"
b1010 5
b1010 ##
b1100010110110000000100000 W
b1100010110110000000100000 |"
b11000000010011000 i
b11000000010011000 ."
b11000 B
b11000 T"
b11000 ~"
1!
#25
0!
